StartFontMetrics 2.0
Comment Generated by FontForge 20120731
Comment Creation Date: Sat Dec 21 17:04:16 2019
FontName Eight-Bit-Dragon
FullName Eight Bit Dragon
FamilyName Eight Bit Dragon
Weight Book
Notice (Copyright Chequered Ink Ltd. 2018)
ItalicAngle 0
IsFixedPitch false
UnderlinePosition 511
UnderlineThickness 204
Version 1.00;September 11, 2018;FontCreator 11.5.0.2422 64-bit
EncodingScheme ISO10646-1
FontBBox 0 -100 700 900
CapHeight 900
XHeight 700
Ascender 900
Descender -100
StartCharMetrics 346
C 32 ; WX 299 ; N space ; B 0 0 0 0 ;
C 33 ; WX 299 ; N exclam ; B 0 0 200 900 ;
C 34 ; WX 599 ; N quotedbl ; B 0 500 500 900 ;
C 35 ; WX 799 ; N numbersign ; B 0 0 700 900 ;
C 36 ; WX 699 ; N dollar ; B 0 0 600 900 ;
C 37 ; WX 699 ; N percent ; B 0 0 600 900 ;
C 38 ; WX 699 ; N ampersand ; B 0 0 600 900 ;
C 39 ; WX 299 ; N quotesingle ; B 0 500 200 900 ;
C 40 ; WX 500 ; N parenleft ; B 0 0 400 900 ;
C 41 ; WX 500 ; N parenright ; B 0 0 400 900 ;
C 42 ; WX 599 ; N asterisk ; B 0 399 500 900 ;
C 43 ; WX 699 ; N plus ; B 0 199 600 700 ;
C 44 ; WX 299 ; N comma ; B 0 -100 200 300 ;
C 45 ; WX 699 ; N hyphen ; B 0 399 600 500 ;
C 46 ; WX 299 ; N period ; B 0 0 200 200 ;
C 47 ; WX 699 ; N slash ; B 0 0 600 900 ;
C 48 ; WX 699 ; N zero ; B 0 0 600 900 ;
C 49 ; WX 699 ; N one ; B 0 0 600 900 ;
C 50 ; WX 699 ; N two ; B 0 0 600 900 ;
C 51 ; WX 699 ; N three ; B 0 0 600 900 ;
C 52 ; WX 699 ; N four ; B 0 0 600 900 ;
C 53 ; WX 699 ; N five ; B 0 0 600 900 ;
C 54 ; WX 699 ; N six ; B 0 0 600 900 ;
C 55 ; WX 699 ; N seven ; B 0 0 600 900 ;
C 56 ; WX 699 ; N eight ; B 0 0 600 900 ;
C 57 ; WX 699 ; N nine ; B 0 0 600 900 ;
C 58 ; WX 299 ; N colon ; B 0 0 200 700 ;
C 59 ; WX 299 ; N semicolon ; B 0 -100 200 700 ;
C 60 ; WX 599 ; N less ; B 0 99 500 800 ;
C 61 ; WX 699 ; N equal ; B 0 299 600 600 ;
C 62 ; WX 599 ; N greater ; B 0 99 500 800 ;
C 63 ; WX 699 ; N question ; B 0 0 600 900 ;
C 64 ; WX 799 ; N at ; B 0 0 700 900 ;
C 65 ; WX 699 ; N A ; B 0 0 600 900 ;
C 66 ; WX 699 ; N B ; B 0 0 600 900 ;
C 67 ; WX 699 ; N C ; B 0 0 600 900 ;
C 68 ; WX 699 ; N D ; B 0 0 600 900 ;
C 69 ; WX 699 ; N E ; B 0 0 600 900 ;
C 70 ; WX 699 ; N F ; B 0 0 600 900 ;
C 71 ; WX 699 ; N G ; B 0 0 600 900 ;
C 72 ; WX 699 ; N H ; B 0 0 600 900 ;
C 73 ; WX 299 ; N I ; B 0 0 200 900 ;
C 74 ; WX 699 ; N J ; B 0 0 600 900 ;
C 75 ; WX 699 ; N K ; B 0 0 600 900 ;
C 76 ; WX 699 ; N L ; B 0 0 600 900 ;
C 77 ; WX 799 ; N M ; B 0 0 700 900 ;
C 78 ; WX 699 ; N N ; B 0 0 600 900 ;
C 79 ; WX 699 ; N O ; B 0 0 600 900 ;
C 80 ; WX 699 ; N P ; B 0 0 600 900 ;
C 81 ; WX 699 ; N Q ; B 0 0 600 900 ;
C 82 ; WX 699 ; N R ; B 0 0 600 900 ;
C 83 ; WX 699 ; N S ; B 0 0 600 900 ;
C 84 ; WX 699 ; N T ; B 0 0 600 900 ;
C 85 ; WX 699 ; N U ; B 0 0 600 900 ;
C 86 ; WX 699 ; N V ; B 0 0 600 900 ;
C 87 ; WX 799 ; N W ; B 0 0 700 900 ;
C 88 ; WX 699 ; N X ; B 0 0 600 900 ;
C 89 ; WX 699 ; N Y ; B 0 0 600 900 ;
C 90 ; WX 699 ; N Z ; B 0 0 600 900 ;
C 91 ; WX 399 ; N bracketleft ; B 0 0 300 900 ;
C 92 ; WX 699 ; N backslash ; B 0 0 600 900 ;
C 93 ; WX 399 ; N bracketright ; B 0 0 300 900 ;
C 94 ; WX 699 ; N asciicircum ; B 0 500 600 900 ;
C 95 ; WX 699 ; N underscore ; B 0 0 600 100 ;
C 96 ; WX 399 ; N grave ; B 0 699 300 900 ;
C 97 ; WX 699 ; N a ; B 0 0 600 700 ;
C 98 ; WX 699 ; N b ; B 0 0 600 900 ;
C 99 ; WX 699 ; N c ; B 0 0 600 700 ;
C 100 ; WX 699 ; N d ; B 0 0 600 900 ;
C 101 ; WX 699 ; N e ; B 0 0 600 700 ;
C 102 ; WX 699 ; N f ; B 0 0 600 800 ;
C 103 ; WX 699 ; N g ; B 0 -100 600 700 ;
C 104 ; WX 699 ; N h ; B 0 0 600 900 ;
C 105 ; WX 299 ; N i ; B 0 0 200 900 ;
C 106 ; WX 399 ; N j ; B 0 -100 300 900 ;
C 107 ; WX 699 ; N k ; B 0 0 600 900 ;
C 108 ; WX 299 ; N l ; B 0 0 200 900 ;
C 109 ; WX 799 ; N m ; B 0 0 700 700 ;
C 110 ; WX 699 ; N n ; B 0 0 600 700 ;
C 111 ; WX 699 ; N o ; B 0 0 600 700 ;
C 112 ; WX 699 ; N p ; B 0 -100 600 700 ;
C 113 ; WX 699 ; N q ; B 0 -100 600 700 ;
C 114 ; WX 699 ; N r ; B 0 0 600 700 ;
C 115 ; WX 699 ; N s ; B 0 0 600 700 ;
C 116 ; WX 699 ; N t ; B 0 0 600 800 ;
C 117 ; WX 699 ; N u ; B 0 0 600 700 ;
C 118 ; WX 699 ; N v ; B 0 0 600 700 ;
C 119 ; WX 799 ; N w ; B 0 0 700 700 ;
C 120 ; WX 699 ; N x ; B 0 0 600 700 ;
C 121 ; WX 699 ; N y ; B 0 -100 600 700 ;
C 122 ; WX 699 ; N z ; B 0 0 600 700 ;
C 123 ; WX 500 ; N braceleft ; B 0 0 400 900 ;
C 124 ; WX 299 ; N bar ; B 0 0 200 900 ;
C 125 ; WX 500 ; N braceright ; B 0 0 400 900 ;
C 126 ; WX 699 ; N asciitilde ; B 0 299 600 600 ;
C 160 ; WX 299 ; N uni00A0 ; B 0 0 0 0 ;
C 161 ; WX 299 ; N exclamdown ; B 0 -100 200 800 ;
C 162 ; WX 699 ; N cent ; B 0 0 600 900 ;
C 163 ; WX 699 ; N sterling ; B 0 0 600 900 ;
C 164 ; WX 699 ; N currency ; B 0 99 600 700 ;
C 165 ; WX 699 ; N yen ; B 0 0 600 900 ;
C 166 ; WX 299 ; N brokenbar ; B 0 0 200 900 ;
C 167 ; WX 699 ; N section ; B 0 0 600 900 ;
C 168 ; WX 699 ; N dieresis ; B 0 799 600 900 ;
C 169 ; WX 799 ; N copyright ; B 0 0 700 900 ;
C 170 ; WX 699 ; N ordfeminine ; B 0 199 600 900 ;
C 171 ; WX 799 ; N guillemotleft ; B 0 199 700 700 ;
C 172 ; WX 699 ; N logicalnot ; B 0 199 600 500 ;
C 173 ; WX 699 ; N uni00AD ; B 0 399 600 500 ;
C 174 ; WX 799 ; N registered ; B 0 0 700 900 ;
C 175 ; WX 699 ; N macron ; B 0 799 600 900 ;
C 176 ; WX 599 ; N degree ; B 0 399 500 900 ;
C 177 ; WX 699 ; N plusminus ; B 0 0 600 700 ;
C 178 ; WX 699 ; N uni00B2 ; B 0 199 600 900 ;
C 179 ; WX 699 ; N uni00B3 ; B 0 199 600 900 ;
C 180 ; WX 399 ; N acute ; B 0 699 300 900 ;
C 181 ; WX 699 ; N uni00B5 ; B 0 -100 600 700 ;
C 182 ; WX 699 ; N paragraph ; B 0 0 600 900 ;
C 183 ; WX 299 ; N periodcentered ; B 0 399 200 600 ;
C 184 ; WX 399 ; N cedilla ; B 0 -100 300 100 ;
C 185 ; WX 699 ; N uni00B9 ; B 0 199 600 900 ;
C 186 ; WX 699 ; N ordmasculine ; B 0 199 600 900 ;
C 187 ; WX 799 ; N guillemotright ; B 0 199 700 700 ;
C 188 ; WX 799 ; N onequarter ; B 0 0 700 900 ;
C 189 ; WX 799 ; N onehalf ; B 0 0 700 900 ;
C 190 ; WX 799 ; N threequarters ; B 0 0 700 900 ;
C 191 ; WX 699 ; N questiondown ; B 0 -100 600 800 ;
C 192 ; WX 699 ; N Agrave ; B 0 0 600 900 ;
C 193 ; WX 699 ; N Aacute ; B 0 0 600 900 ;
C 194 ; WX 699 ; N Acircumflex ; B 0 0 600 900 ;
C 195 ; WX 699 ; N Atilde ; B 0 0 600 900 ;
C 196 ; WX 699 ; N Adieresis ; B 0 0 600 900 ;
C 197 ; WX 699 ; N Aring ; B 0 0 600 900 ;
C 198 ; WX 799 ; N AE ; B 0 0 700 900 ;
C 199 ; WX 699 ; N Ccedilla ; B 0 -100 600 900 ;
C 200 ; WX 699 ; N Egrave ; B 0 0 600 900 ;
C 201 ; WX 699 ; N Eacute ; B 0 0 600 900 ;
C 202 ; WX 699 ; N Ecircumflex ; B 0 0 600 900 ;
C 203 ; WX 699 ; N Edieresis ; B 0 0 600 900 ;
C 204 ; WX 399 ; N Igrave ; B 0 0 300 900 ;
C 205 ; WX 399 ; N Iacute ; B 0 0 300 900 ;
C 206 ; WX 500 ; N Icircumflex ; B 0 0 400 900 ;
C 207 ; WX 599 ; N Idieresis ; B 0 0 600 900 ;
C 208 ; WX 799 ; N Eth ; B 0 0 700 900 ;
C 209 ; WX 699 ; N Ntilde ; B 0 0 600 900 ;
C 210 ; WX 699 ; N Ograve ; B 0 0 600 900 ;
C 211 ; WX 699 ; N Oacute ; B 0 0 600 900 ;
C 212 ; WX 699 ; N Ocircumflex ; B 0 0 600 900 ;
C 213 ; WX 699 ; N Otilde ; B 0 0 600 900 ;
C 214 ; WX 699 ; N Odieresis ; B 0 0 600 900 ;
C 215 ; WX 699 ; N multiply ; B 0 199 600 700 ;
C 216 ; WX 699 ; N Oslash ; B 0 0 600 900 ;
C 217 ; WX 699 ; N Ugrave ; B 0 0 600 900 ;
C 218 ; WX 699 ; N Uacute ; B 0 0 600 900 ;
C 219 ; WX 699 ; N Ucircumflex ; B 0 0 600 900 ;
C 220 ; WX 699 ; N Udieresis ; B 0 0 600 900 ;
C 221 ; WX 699 ; N Yacute ; B 0 0 600 900 ;
C 222 ; WX 699 ; N Thorn ; B 0 0 600 900 ;
C 223 ; WX 699 ; N germandbls ; B 0 0 600 900 ;
C 224 ; WX 699 ; N agrave ; B 0 0 600 900 ;
C 225 ; WX 699 ; N aacute ; B 0 0 600 900 ;
C 226 ; WX 699 ; N acircumflex ; B 0 0 600 900 ;
C 227 ; WX 699 ; N atilde ; B 0 0 600 900 ;
C 228 ; WX 699 ; N adieresis ; B 0 0 600 900 ;
C 229 ; WX 699 ; N aring ; B 0 0 600 900 ;
C 230 ; WX 799 ; N ae ; B 0 0 700 700 ;
C 231 ; WX 699 ; N ccedilla ; B 0 -100 600 800 ;
C 232 ; WX 699 ; N egrave ; B 0 0 600 900 ;
C 233 ; WX 699 ; N eacute ; B 0 0 600 900 ;
C 234 ; WX 699 ; N ecircumflex ; B 0 0 600 900 ;
C 235 ; WX 699 ; N edieresis ; B 0 0 600 900 ;
C 236 ; WX 399 ; N igrave ; B 0 0 300 900 ;
C 237 ; WX 399 ; N iacute ; B 0 0 300 900 ;
C 238 ; WX 500 ; N icircumflex ; B 0 0 400 900 ;
C 239 ; WX 699 ; N idieresis ; B 0 0 600 900 ;
C 240 ; WX 699 ; N eth ; B 0 0 600 900 ;
C 241 ; WX 699 ; N ntilde ; B 0 0 600 900 ;
C 242 ; WX 699 ; N ograve ; B 0 0 600 900 ;
C 243 ; WX 699 ; N oacute ; B 0 0 600 900 ;
C 244 ; WX 699 ; N ocircumflex ; B 0 0 600 900 ;
C 245 ; WX 699 ; N otilde ; B 0 0 600 900 ;
C 246 ; WX 699 ; N odieresis ; B 0 0 600 900 ;
C 247 ; WX 699 ; N divide ; B 0 99 600 800 ;
C 248 ; WX 699 ; N oslash ; B 0 0 600 700 ;
C 249 ; WX 699 ; N ugrave ; B 0 0 600 900 ;
C 250 ; WX 699 ; N uacute ; B 0 0 600 900 ;
C 251 ; WX 699 ; N ucircumflex ; B 0 0 600 900 ;
C 252 ; WX 699 ; N udieresis ; B 0 0 600 900 ;
C 253 ; WX 699 ; N yacute ; B 0 -100 600 900 ;
C 254 ; WX 699 ; N thorn ; B 0 -100 600 800 ;
C 255 ; WX 699 ; N ydieresis ; B 0 -100 600 900 ;
C -1 ; WX 699 ; N Amacron ; B 0 0 600 900 ;
C -1 ; WX 699 ; N amacron ; B 0 0 600 900 ;
C -1 ; WX 699 ; N Abreve ; B 0 0 600 900 ;
C -1 ; WX 699 ; N abreve ; B 0 0 600 900 ;
C -1 ; WX 699 ; N Aogonek ; B 0 -100 600 900 ;
C -1 ; WX 699 ; N aogonek ; B 0 -100 600 800 ;
C -1 ; WX 699 ; N Cacute ; B 0 0 600 900 ;
C -1 ; WX 699 ; N cacute ; B 0 0 600 900 ;
C -1 ; WX 699 ; N Ccircumflex ; B 0 0 600 900 ;
C -1 ; WX 699 ; N ccircumflex ; B 0 0 600 900 ;
C -1 ; WX 699 ; N Cdotaccent ; B 0 0 600 900 ;
C -1 ; WX 699 ; N cdotaccent ; B 0 0 600 900 ;
C -1 ; WX 699 ; N Ccaron ; B 0 0 600 900 ;
C -1 ; WX 699 ; N ccaron ; B 0 0 600 900 ;
C -1 ; WX 699 ; N Dcaron ; B 0 0 600 900 ;
C -1 ; WX 799 ; N dcaron ; B 0 0 700 900 ;
C -1 ; WX 799 ; N Dcroat ; B 0 0 700 900 ;
C -1 ; WX 799 ; N dcroat ; B 0 0 700 900 ;
C -1 ; WX 699 ; N Emacron ; B 0 0 600 900 ;
C -1 ; WX 699 ; N emacron ; B 0 0 600 900 ;
C -1 ; WX 699 ; N Ebreve ; B 0 0 600 900 ;
C -1 ; WX 699 ; N ebreve ; B 0 0 600 900 ;
C -1 ; WX 699 ; N Edotaccent ; B 0 0 600 900 ;
C -1 ; WX 699 ; N edotaccent ; B 0 0 600 900 ;
C -1 ; WX 699 ; N Eogonek ; B 0 -100 600 900 ;
C -1 ; WX 699 ; N eogonek ; B 0 -100 600 800 ;
C -1 ; WX 699 ; N Ecaron ; B 0 0 600 900 ;
C -1 ; WX 699 ; N ecaron ; B 0 0 600 900 ;
C -1 ; WX 699 ; N Gcircumflex ; B 0 0 600 900 ;
C -1 ; WX 699 ; N gcircumflex ; B 0 -100 600 900 ;
C -1 ; WX 699 ; N Gbreve ; B 0 0 600 900 ;
C -1 ; WX 699 ; N gbreve ; B 0 -100 600 900 ;
C -1 ; WX 699 ; N Gdotaccent ; B 0 0 600 900 ;
C -1 ; WX 699 ; N gdotaccent ; B 0 -100 600 900 ;
C -1 ; WX 699 ; N Gcommaaccent ; B 0 -100 600 900 ;
C -1 ; WX 699 ; N gcommaaccent ; B 0 -100 600 900 ;
C -1 ; WX 699 ; N Hcircumflex ; B 0 0 600 900 ;
C -1 ; WX 799 ; N hcircumflex ; B 0 0 700 900 ;
C -1 ; WX 799 ; N Hbar ; B 0 0 700 900 ;
C -1 ; WX 799 ; N hbar ; B 0 0 700 900 ;
C -1 ; WX 699 ; N Itilde ; B 0 0 600 900 ;
C -1 ; WX 699 ; N itilde ; B 0 0 600 900 ;
C -1 ; WX 500 ; N Imacron ; B 0 0 400 900 ;
C -1 ; WX 500 ; N imacron ; B 0 0 400 900 ;
C -1 ; WX 500 ; N Ibreve ; B 0 0 400 900 ;
C -1 ; WX 500 ; N ibreve ; B 0 0 400 900 ;
C -1 ; WX 399 ; N Iogonek ; B 0 -100 300 900 ;
C -1 ; WX 399 ; N iogonek ; B 0 -100 300 900 ;
C -1 ; WX 299 ; N Idotaccent ; B 0 0 200 900 ;
C -1 ; WX 299 ; N dotlessi ; B 0 0 200 700 ;
C -1 ; WX 799 ; N IJ ; B 0 0 700 900 ;
C -1 ; WX 699 ; N ij ; B 0 -100 600 900 ;
C -1 ; WX 699 ; N Jcircumflex ; B 0 0 600 900 ;
C -1 ; WX 500 ; N jcircumflex ; B 0 -100 400 900 ;
C -1 ; WX 699 ; N Kcommaaccent ; B 0 -100 600 900 ;
C -1 ; WX 699 ; N kcommaaccent ; B 0 -100 600 900 ;
C -1 ; WX 699 ; N kgreenlandic ; B 0 0 600 700 ;
C -1 ; WX 699 ; N Lacute ; B 0 0 600 900 ;
C -1 ; WX 399 ; N lacute ; B 0 0 300 900 ;
C -1 ; WX 699 ; N Lcommaaccent ; B 0 -100 600 900 ;
C -1 ; WX 399 ; N lcommaaccent ; B 0 -100 300 900 ;
C -1 ; WX 699 ; N Lcaron ; B 0 0 600 900 ;
C -1 ; WX 699 ; N lcaron ; B 0 0 600 900 ;
C -1 ; WX 699 ; N Ldot ; B 0 0 600 900 ;
C -1 ; WX 599 ; N ldot ; B 0 0 500 900 ;
C -1 ; WX 799 ; N Lslash ; B 0 0 700 900 ;
C -1 ; WX 599 ; N lslash ; B 0 0 500 900 ;
C -1 ; WX 699 ; N Nacute ; B 0 0 600 900 ;
C -1 ; WX 699 ; N nacute ; B 0 0 600 900 ;
C -1 ; WX 699 ; N Ncommaaccent ; B 0 -100 600 900 ;
C -1 ; WX 699 ; N ncommaaccent ; B 0 -100 600 700 ;
C -1 ; WX 699 ; N Ncaron ; B 0 0 600 900 ;
C -1 ; WX 699 ; N ncaron ; B 0 0 600 900 ;
C -1 ; WX 799 ; N napostrophe ; B 0 0 700 900 ;
C -1 ; WX 699 ; N Eng ; B 0 -100 600 900 ;
C -1 ; WX 699 ; N eng ; B 0 -100 600 700 ;
C -1 ; WX 699 ; N Omacron ; B 0 0 600 900 ;
C -1 ; WX 699 ; N omacron ; B 0 0 600 900 ;
C -1 ; WX 699 ; N Obreve ; B 0 0 600 900 ;
C -1 ; WX 699 ; N obreve ; B 0 0 600 900 ;
C -1 ; WX 699 ; N Ohungarumlaut ; B 0 0 600 900 ;
C -1 ; WX 699 ; N ohungarumlaut ; B 0 0 600 900 ;
C -1 ; WX 799 ; N OE ; B 0 0 700 900 ;
C -1 ; WX 799 ; N oe ; B 0 0 700 700 ;
C -1 ; WX 699 ; N Racute ; B 0 0 600 900 ;
C -1 ; WX 699 ; N racute ; B 0 0 600 900 ;
C -1 ; WX 699 ; N Rcommaaccent ; B 0 -100 600 900 ;
C -1 ; WX 699 ; N rcommaaccent ; B 0 -100 600 700 ;
C -1 ; WX 699 ; N Rcaron ; B 0 0 600 900 ;
C -1 ; WX 699 ; N rcaron ; B 0 0 600 900 ;
C -1 ; WX 699 ; N Sacute ; B 0 0 600 900 ;
C -1 ; WX 699 ; N sacute ; B 0 0 600 900 ;
C -1 ; WX 699 ; N Scircumflex ; B 0 0 600 900 ;
C -1 ; WX 699 ; N scircumflex ; B 0 0 600 900 ;
C -1 ; WX 699 ; N Scedilla ; B 0 -100 600 900 ;
C -1 ; WX 699 ; N scedilla ; B 0 -100 600 700 ;
C -1 ; WX 699 ; N Scaron ; B 0 0 600 900 ;
C -1 ; WX 699 ; N scaron ; B 0 0 600 900 ;
C -1 ; WX 699 ; N Tcommaaccent ; B 0 -100 600 900 ;
C -1 ; WX 699 ; N tcommaaccent ; B 0 -100 600 700 ;
C -1 ; WX 699 ; N Tcaron ; B 0 0 600 900 ;
C -1 ; WX 799 ; N tcaron ; B 0 0 700 800 ;
C -1 ; WX 699 ; N Tbar ; B 0 0 600 900 ;
C -1 ; WX 699 ; N tbar ; B 0 0 600 800 ;
C -1 ; WX 699 ; N Utilde ; B 0 0 600 900 ;
C -1 ; WX 699 ; N utilde ; B 0 0 600 900 ;
C -1 ; WX 699 ; N Umacron ; B 0 0 600 900 ;
C -1 ; WX 699 ; N umacron ; B 0 0 600 900 ;
C -1 ; WX 699 ; N Ubreve ; B 0 0 600 900 ;
C -1 ; WX 699 ; N ubreve ; B 0 0 600 900 ;
C -1 ; WX 699 ; N Uring ; B 0 0 600 900 ;
C -1 ; WX 699 ; N uring ; B 0 0 600 900 ;
C -1 ; WX 699 ; N Uhungarumlaut ; B 0 0 600 900 ;
C -1 ; WX 699 ; N uhungarumlaut ; B 0 0 600 900 ;
C -1 ; WX 699 ; N Uogonek ; B 0 -100 600 900 ;
C -1 ; WX 699 ; N uogonek ; B 0 -100 600 700 ;
C -1 ; WX 799 ; N Wcircumflex ; B 0 0 700 900 ;
C -1 ; WX 799 ; N wcircumflex ; B 0 0 700 900 ;
C -1 ; WX 699 ; N Ycircumflex ; B 0 0 600 900 ;
C -1 ; WX 699 ; N ycircumflex ; B 0 -100 600 900 ;
C -1 ; WX 699 ; N Ydieresis ; B 0 0 600 900 ;
C -1 ; WX 699 ; N Zacute ; B 0 0 600 900 ;
C -1 ; WX 699 ; N zacute ; B 0 0 600 900 ;
C -1 ; WX 699 ; N Zdotaccent ; B 0 0 600 900 ;
C -1 ; WX 699 ; N zdotaccent ; B 0 0 600 900 ;
C -1 ; WX 699 ; N Zcaron ; B 0 0 600 900 ;
C -1 ; WX 699 ; N zcaron ; B 0 0 600 900 ;
C -1 ; WX 699 ; N longs ; B 0 0 600 900 ;
C -1 ; WX 500 ; N circumflex ; B 0 699 400 900 ;
C -1 ; WX 500 ; N ring ; B 0 599 400 900 ;
C -1 ; WX 699 ; N tilde ; B 0 699 600 900 ;
C -1 ; WX 699 ; N uni1E9E ; B 0 0 600 900 ;
C -1 ; WX 699 ; N endash ; B 0 399 600 500 ;
C -1 ; WX 799 ; N emdash ; B 0 399 700 500 ;
C -1 ; WX 299 ; N quoteleft ; B 0 500 200 900 ;
C -1 ; WX 299 ; N quoteright ; B 0 500 200 900 ;
C -1 ; WX 299 ; N quotesinglbase ; B 0 -100 200 300 ;
C -1 ; WX 299 ; N quotereversed ; B 0 500 200 900 ;
C -1 ; WX 599 ; N quotedblleft ; B 0 500 500 900 ;
C -1 ; WX 599 ; N quotedblright ; B 0 500 500 900 ;
C -1 ; WX 599 ; N quotedblbase ; B 0 -100 500 300 ;
C -1 ; WX 699 ; N dagger ; B 0 0 600 900 ;
C -1 ; WX 500 ; N bullet ; B 0 199 400 600 ;
C -1 ; WX 799 ; N ellipsis ; B 0 0 700 200 ;
C -1 ; WX 500 ; N guilsinglleft ; B 0 199 400 700 ;
C -1 ; WX 500 ; N guilsinglright ; B 0 199 400 700 ;
C -1 ; WX 799 ; N fraction ; B 0 0 700 800 ;
C -1 ; WX 699 ; N uni2074 ; B 0 199 600 900 ;
C -1 ; WX 699 ; N Euro ; B 0 0 600 900 ;
C -1 ; WX 799 ; N trademark ; B 0 399 700 900 ;
C -1 ; WX 699 ; N minus ; B 0 399 600 500 ;
C -1 ; WX 699 ; N uni2215 ; B 0 0 600 900 ;
C -1 ; WX 799 ; N .notdef ; B 0 0 700 900 ;
C -1 ; WX 99 ; N glyph1 ; B 0 0 0 0 ;
C -1 ; WX 99 ; N glyph2 ; B 0 0 0 0 ;
EndCharMetrics
EndFontMetrics
