<?xml version="1.0" encoding="UTF-8" standalone="no"?>
<svg
   xmlns:sketch="http://www.bohemiancoding.com/sketch/ns"
   xmlns:dc="http://purl.org/dc/elements/1.1/"
   xmlns:cc="http://creativecommons.org/ns#"
   xmlns:rdf="http://www.w3.org/1999/02/22-rdf-syntax-ns#"
   xmlns:svg="http://www.w3.org/2000/svg"
   xmlns="http://www.w3.org/2000/svg"
   xmlns:sodipodi="http://sodipodi.sourceforge.net/DTD/sodipodi-0.dtd"
   xmlns:inkscape="http://www.inkscape.org/namespaces/inkscape"
   viewBox="0 0 18 24"
   version="1.1"
   x="0px"
   y="0px"
   id="svg2"
   inkscape:version="0.91 r13725"
   sodipodi:docname="file.svg"
   width="18"
   height="24">
  <metadata
     id="metadata22">
    <rdf:RDF>
      <cc:Work
         rdf:about="">
        <dc:format>image/svg+xml</dc:format>
        <dc:type
           rdf:resource="http://purl.org/dc/dcmitype/StillImage" />
        <dc:title>file_001-file-text-document-paper-doc-txt-empty</dc:title>
      </cc:Work>
    </rdf:RDF>
  </metadata>
  <defs
     id="defs20" />
  <sodipodi:namedview
     pagecolor="#ffffff"
     bordercolor="#666666"
     borderopacity="1"
     objecttolerance="10"
     gridtolerance="10"
     guidetolerance="10"
     inkscape:pageopacity="0"
     inkscape:pageshadow="2"
     inkscape:window-width="1920"
     inkscape:window-height="1028"
     id="namedview18"
     showgrid="false"
     fit-margin-top="0"
     fit-margin-left="0"
     fit-margin-right="0"
     fit-margin-bottom="0"
     inkscape:zoom="6.2933333"
     inkscape:cx="9"
     inkscape:cy="8.25"
     inkscape:window-x="0"
     inkscape:window-y="24"
     inkscape:window-maximized="1"
     inkscape:current-layer="svg2" />
  <title
     id="title4">file_001-file-text-document-paper-doc-txt-empty</title>
  <desc
     id="desc6">Created with Sketch.</desc>
  <g
     sketch:type="MSPage"
     id="g8"
     style="fill:none;fill-rule:evenodd;stroke:none;stroke-width:1"
     transform="translate(-6,-3)">
    <g
       sketch:type="MSArtboardGroup"
       transform="translate(-45,-45)"
       id="g10"
       style="fill:#000000">
      <path
         d="m 51,71.5 c 0,0.276142 0.223858,0.5 0.5,0.5 l 17,0 c 0.276142,0 0.5,-0.223858 0.5,-0.5 l 0,-18.3 c 0,-0.132609 -0.05268,-0.259785 -0.146447,-0.353554 l -4.7,-4.699999 C 64.059784,48.052678 63.932608,48 63.799999,48 L 51.5,48 C 51.223858,48 51,48.223858 51,48.5 l 0,23 z m 17,-0.5 -16,0 0,-22 11,0 0,4.5 c 0,0.276142 0.223858,0.5 0.5,0.5 l 4.5,0 0,17 z M 67.59,53 64,53 64,49.41 67.59,53 Z"
         sketch:type="MSShapeGroup"
         id="path12"
         inkscape:connector-curvature="0" />
    </g>
  </g>
</svg>
